<project description="" id="1" linkage="" name="MyFirstProject.Leeson7" version=""><graphs><graph description="" id="5" linkage="" name="New oriented graph 1" type="ORIENTED_GRAPH" version=""><node description="" height="25.0" id="2" name="START" priority="" style="STYLE_START" width="70.0" xpos="180.0" ypos="100.0"></node><edge description="" id="7" name="1" priority="" source="2" target="3"></edge><node description="" height="40.0" id="3" name="A" priority="" style="STYLE_NODE" width="40.0" xpos="180.0" ypos="230.0"></node><edge description="" id="8" name="2" priority="" source="3" target="4"></edge><edge description="" id="10" name="4" priority="" source="3" target="5"></edge><node description="" height="40.0" id="4" name="B" priority="" style="STYLE_NODE" width="40.0" xpos="390.0" ypos="260.0"></node><edge description="" id="9" name="3" priority="" source="4" target="5"></edge><node description="" height="40.0" id="5" name="C" priority="" style="STYLE_NODE" width="40.0" xpos="210.0" ypos="340.0"></node><edge description="" id="11" name="5" priority="" source="5" target="6"></edge><edge description="" id="12" name="6" priority="" source="5" target="3"></edge><node description="" height="40.0" id="6" name="D" priority="" style="STYLE_NODE" width="40.0" xpos="200.0" ypos="450.0"></node><test_case changed="false" combinations_data_rows="3" graph_id="5" name="Test situations 1, TDL= 2, ALG= PCT." note="" test_situations_data_rows="3"><combinations_data_value col="0" selected_row="0">B</combinations_data_value><combinations_data_value col="1" selected_row="0">2 - 3
</combinations_data_value><combinations_data_value col="0" selected_row="1">A</combinations_data_value><combinations_data_value col="1" selected_row="1">1 - 2
1 - 4
6 - 2
6 - 4
</combinations_data_value><combinations_data_value col="0" selected_row="2">C</combinations_data_value><combinations_data_value col="1" selected_row="2">4 - 5
4 - 6
3 - 5
3 - 6
</combinations_data_value><test_situation_row><value edge_id="7" name="1"></value><value edge_id="8" name="2"></value><value edge_id="9" name="3"></value><value edge_id="11" name="5"></value></test_situation_row><test_situation_row><value edge_id="7" name="1"></value><value edge_id="10" name="4"></value><value edge_id="11" name="5"></value></test_situation_row><test_situation_row><value edge_id="7" name="1"></value><value edge_id="8" name="2"></value><value edge_id="9" name="3"></value><value edge_id="12" name="6"></value><value edge_id="10" name="4"></value><value edge_id="12" name="6"></value><value edge_id="8" name="2"></value><value edge_id="9" name="3"></value><value edge_id="11" name="5"></value></test_situation_row></test_case><test_case changed="false" combinations_data_rows="3" graph_id="5" name="Test situations 2, TDL= 2, ALG= PCT." note="" test_situations_data_rows="3"><combinations_data_value col="0" selected_row="0">B</combinations_data_value><combinations_data_value col="1" selected_row="0">2 - 3
</combinations_data_value><combinations_data_value col="0" selected_row="1">A</combinations_data_value><combinations_data_value col="1" selected_row="1">1 - 2
1 - 4
6 - 2
6 - 4
</combinations_data_value><combinations_data_value col="0" selected_row="2">C</combinations_data_value><combinations_data_value col="1" selected_row="2">4 - 5
4 - 6
3 - 5
3 - 6
</combinations_data_value><test_situation_row><value edge_id="7" name="1"></value><value edge_id="8" name="2"></value><value edge_id="9" name="3"></value><value edge_id="11" name="5"></value></test_situation_row><test_situation_row><value edge_id="7" name="1"></value><value edge_id="10" name="4"></value><value edge_id="11" name="5"></value></test_situation_row><test_situation_row><value edge_id="7" name="1"></value><value edge_id="8" name="2"></value><value edge_id="9" name="3"></value><value edge_id="12" name="6"></value><value edge_id="10" name="4"></value><value edge_id="12" name="6"></value><value edge_id="8" name="2"></value><value edge_id="9" name="3"></value><value edge_id="11" name="5"></value></test_situation_row></test_case></graph><graph description="" id="9" linkage="" name="New oriented graph 2" type="ORIENTED_GRAPH" version=""><node description="" height="25.0" id="2" name="START" priority="" style="STYLE_START" width="70.0" xpos="210.0" ypos="70.0"></node><edge description="" id="8" name="1" priority="" source="2" target="3"></edge><node description="" height="40.0" id="3" name="A" priority="" style="STYLE_NODE" width="40.0" xpos="230.0" ypos="200.0"></node><edge description="" id="9" name="2" priority="" source="3" target="4"></edge><edge description="" id="10" name="3" priority="" source="3" target="7"></edge><node description="" height="40.0" id="4" name="B" priority="" style="STYLE_NODE" width="40.0" xpos="480.0" ypos="140.0"></node><edge description="" id="11" name="4" priority="" source="4" target="6"></edge><edge description="" id="12" name="5" priority="" source="4" target="5"></edge><node description="" height="40.0" id="5" name="C" priority="" style="STYLE_NODE" width="40.0" xpos="700.0" ypos="310.0"></node><edge description="" id="14" name="7" priority="" source="5" target="7"></edge><edge description="" id="16" name="8" priority="" source="5" target="15"></edge><node description="" height="40.0" id="6" name="D" priority="" style="STYLE_NODE" width="40.0" xpos="420.0" ypos="250.0"></node><edge description="" id="13" name="6" priority="" source="6" target="7"></edge><edge description="" id="19" name="10" priority="" source="6" target="18"></edge><node description="" height="40.0" id="7" name="E" priority="" style="STYLE_NODE" width="40.0" xpos="230.0" ypos="370.0"></node><node description="" height="40.0" id="15" name="F" priority="" style="STYLE_NODE" width="40.0" xpos="830.0" ypos="260.0"></node><edge description="" id="17" name="9" priority="" source="15" target="5"></edge><node description="" height="40.0" id="18" name="G" priority="" style="STYLE_NODE" width="40.0" xpos="520.0" ypos="270.0"></node><edge description="" id="20" name="11" priority="" source="18" target="6"></edge></graph></graphs><crud linkage="" version=""><description></description><entities><entity entity_id="E0"><name>E1</name><description></description><attributes></attributes></entity><entity entity_id="E1"><name>E2</name><description></description><attributes></attributes></entity><entity entity_id="E2"><name>E3</name><description></description><attributes></attributes></entity></entities><functions><function function_id="F0"><name>F1</name><description></description></function><function function_id="F1"><name>F2</name><description></description></function><function function_id="F2"><name>F3</name><description></description></function></functions><actions><action entity_id_ref="E0" function_id_ref="F0"><create imns="false" is_set="false"><touched_attributes></touched_attributes></create><read imns="false" is_set="false"><touched_attributes></touched_attributes></read><update imns="false" is_set="false"><touched_attributes></touched_attributes></update><delete imns="false" is_set="false"><touched_attributes></touched_attributes></delete><best_read imns="false" is_set="false"></best_read><influences><influence entity_id_ref="E1" imns="false" is_set="false"></influence><influence entity_id_ref="E2" imns="false" is_set="false"></influence></influences></action><action entity_id_ref="E1" function_id_ref="F0"><create imns="false" is_set="false"><touched_attributes></touched_attributes></create><read imns="false" is_set="false"><touched_attributes></touched_attributes></read><update imns="false" is_set="false"><touched_attributes></touched_attributes></update><delete imns="false" is_set="false"><touched_attributes></touched_attributes></delete><best_read imns="false" is_set="false"></best_read><influences><influence entity_id_ref="E0" imns="false" is_set="false"></influence><influence entity_id_ref="E2" imns="false" is_set="false"></influence></influences></action><action entity_id_ref="E2" function_id_ref="F0"><create imns="false" is_set="false"><touched_attributes></touched_attributes></create><read imns="false" is_set="false"><touched_attributes></touched_attributes></read><update imns="false" is_set="false"><touched_attributes></touched_attributes></update><delete imns="false" is_set="false"><touched_attributes></touched_attributes></delete><best_read imns="false" is_set="false"></best_read><influences><influence entity_id_ref="E0" imns="false" is_set="false"></influence><influence entity_id_ref="E1" imns="false" is_set="false"></influence></influences></action><action entity_id_ref="E0" function_id_ref="F1"><create imns="false" is_set="false"><touched_attributes></touched_attributes></create><read imns="false" is_set="false"><touched_attributes></touched_attributes></read><update imns="false" is_set="false"><touched_attributes></touched_attributes></update><delete imns="false" is_set="false"><touched_attributes></touched_attributes></delete><best_read imns="false" is_set="false"></best_read><influences><influence entity_id_ref="E1" imns="false" is_set="false"></influence><influence entity_id_ref="E2" imns="false" is_set="false"></influence></influences></action><action entity_id_ref="E1" function_id_ref="F1"><create imns="false" is_set="false"><touched_attributes></touched_attributes></create><read imns="false" is_set="false"><touched_attributes></touched_attributes></read><update imns="false" is_set="false"><touched_attributes></touched_attributes></update><delete imns="false" is_set="false"><touched_attributes></touched_attributes></delete><best_read imns="false" is_set="false"></best_read><influences><influence entity_id_ref="E0" imns="false" is_set="false"></influence><influence entity_id_ref="E2" imns="false" is_set="false"></influence></influences></action><action entity_id_ref="E2" function_id_ref="F1"><create imns="false" is_set="false"><touched_attributes></touched_attributes></create><read imns="false" is_set="false"><touched_attributes></touched_attributes></read><update imns="false" is_set="false"><touched_attributes></touched_attributes></update><delete imns="false" is_set="false"><touched_attributes></touched_attributes></delete><best_read imns="false" is_set="false"></best_read><influences><influence entity_id_ref="E0" imns="false" is_set="false"></influence><influence entity_id_ref="E1" imns="false" is_set="false"></influence></influences></action><action entity_id_ref="E0" function_id_ref="F2"><create imns="false" is_set="false"><touched_attributes></touched_attributes></create><read imns="false" is_set="false"><touched_attributes></touched_attributes></read><update imns="false" is_set="false"><touched_attributes></touched_attributes></update><delete imns="false" is_set="false"><touched_attributes></touched_attributes></delete><best_read imns="false" is_set="false"></best_read><influences><influence entity_id_ref="E1" imns="false" is_set="false"></influence><influence entity_id_ref="E2" imns="false" is_set="false"></influence></influences></action><action entity_id_ref="E1" function_id_ref="F2"><create imns="false" is_set="false"><touched_attributes></touched_attributes></create><read imns="false" is_set="false"><touched_attributes></touched_attributes></read><update imns="false" is_set="false"><touched_attributes></touched_attributes></update><delete imns="false" is_set="false"><touched_attributes></touched_attributes></delete><best_read imns="false" is_set="false"></best_read><influences><influence entity_id_ref="E0" imns="false" is_set="false"></influence><influence entity_id_ref="E2" imns="false" is_set="false"></influence></influences></action><action entity_id_ref="E2" function_id_ref="F2"><create imns="false" is_set="false"><touched_attributes></touched_attributes></create><read imns="false" is_set="false"><touched_attributes></touched_attributes></read><update imns="false" is_set="false"><touched_attributes></touched_attributes></update><delete imns="false" is_set="false"><touched_attributes></touched_attributes></delete><best_read imns="false" is_set="false"></best_read><influences><influence entity_id_ref="E0" imns="false" is_set="false"></influence><influence entity_id_ref="E1" imns="false" is_set="false"></influence></influences></action></actions><test_cases></test_cases></crud></project>