# ACTS Test Suite Generation: Tue Mar 22 15:25:31 CET 2022
#  '*' represents don't care value 
# Degree of interaction coverage: 2
# Number of parameters: 3
# Maximum number of values per parameter: 3
# Number of configurations: 6
Ucty,Datum,Castka
16,11,1000
8,11,9999
16,20,9999
8,20,1000
16,99,9999
8,99,1000
